module gitlab.com/pantacor/pantahub-gc

go 1.17

require (
	github.com/ChannelMeter/iso8601duration v0.0.0-20150204201828-8da3af7a2a61
	github.com/gorilla/mux v1.8.0
	go.mongodb.org/mongo-driver v1.8.2
	gopkg.in/mgo.v2 v2.0.0-20190816093944-a6b53ec6cb22
)

require (
	github.com/go-stack/stack v1.8.0 // indirect
	github.com/golang/snappy v0.0.1 // indirect
	github.com/klauspost/compress v1.13.6 // indirect
	github.com/pkg/errors v0.9.1 // indirect
	github.com/xdg-go/pbkdf2 v1.0.0 // indirect
	github.com/xdg-go/scram v1.0.2 // indirect
	github.com/xdg-go/stringprep v1.0.2 // indirect
	github.com/youmark/pkcs8 v0.0.0-20181117223130-1be2e3e5546d // indirect
	golang.org/x/crypto v0.0.0-20201216223049-8b5274cf687f // indirect
	golang.org/x/net v0.0.0-20190404232315-eb5bcb51f2a3 // indirect
	golang.org/x/sync v0.0.0-20190911185100-cd5d95a43a6e // indirect
	golang.org/x/text v0.3.5 // indirect
	gopkg.in/resty.v1 v1.12.0 // indirect
)

replace github.com/go-resty/resty => gopkg.in/resty.v1 v1.12.0
